Library\Bee\artifacts\mvdfrm\Unity.Services.Core.ref.dll_FF91F9BC6398EB7C.mvfrm
Library\Bee\artifacts\mvdfrm\UnityEngine.UI.ref.dll_AFC2E85BC2EDBC0B.mvfrm
Library\Bee\artifacts\mvdfrm\Unity.VisualScripting.Antlr3.Runtime.dll_300EDA6609A9DBC5.mvfrm
Library\Bee\artifacts\mvdfrm\UnityEngine.AccessibilityModule.dll_E394EC87D28A78D2.mvfrm
Library\Bee\artifacts\mvdfrm\UnityEngine.AIModule.dll_E54CA5B31C083F08.mvfrm
Library\Bee\artifacts\mvdfrm\UnityEngine.AndroidJNIModule.dll_6F8924FD053E88C6.mvfrm
Library\Bee\artifacts\mvdfrm\UnityEngine.AnimationModule.dll_A4AB823B7131D2F8.mvfrm
Library\Bee\artifacts\mvdfrm\UnityEngine.ARModule.dll_9EBF6AB679259DD1.mvfrm
Library\Bee\artifacts\mvdfrm\UnityEngine.AssetBundleModule.dll_20F03D76B53C7926.mvfrm
Library\Bee\artifacts\mvdfrm\UnityEngine.AudioModule.dll_B20A94ADA069B5EA.mvfrm
Library\Bee\artifacts\mvdfrm\UnityEngine.ClothModule.dll_18F2F1A87A8694CE.mvfrm
Library\Bee\artifacts\mvdfrm\UnityEngine.CoreModule.dll_A7353A679FD3BA5F.mvfrm
Library\Bee\artifacts\mvdfrm\UnityEngine.CrashReportingModule.dll_13021B9F2ABCFF57.mvfrm
Library\Bee\artifacts\mvdfrm\UnityEngine.DirectorModule.dll_A3237F952A7C283C.mvfrm
Library\Bee\artifacts\mvdfrm\UnityEngine.dll_548E3138C0E14106.mvfrm
Library\Bee\artifacts\mvdfrm\UnityEngine.DSPGraphModule.dll_A874E0FE9CDCF95D.mvfrm
Library\Bee\artifacts\mvdfrm\UnityEngine.GameCenterModule.dll_99D66F17CB7F79B7.mvfrm
Library\Bee\artifacts\mvdfrm\UnityEngine.GIModule.dll_7D88EEC0B7B72722.mvfrm
Library\Bee\artifacts\mvdfrm\UnityEngine.GridModule.dll_84A65655B8285056.mvfrm
Library\Bee\artifacts\mvdfrm\UnityEngine.HotReloadModule.dll_25F440414C64EE7A.mvfrm
Library\Bee\artifacts\mvdfrm\UnityEngine.ImageConversionModule.dll_08E7C898A51ED645.mvfrm
Library\Bee\artifacts\mvdfrm\UnityEngine.IMGUIModule.dll_EA6A3414669B49CB.mvfrm
Library\Bee\artifacts\mvdfrm\UnityEngine.InputLegacyModule.dll_B23558954D2E2F17.mvfrm
Library\Bee\artifacts\mvdfrm\UnityEngine.InputModule.dll_18805C5E16A1DA8E.mvfrm
Library\Bee\artifacts\mvdfrm\UnityEngine.JSONSerializeModule.dll_43AC75C3D1C5D95C.mvfrm
Library\Bee\artifacts\mvdfrm\UnityEngine.LocalizationModule.dll_02EDBC46592A5DA9.mvfrm
Library\Bee\artifacts\mvdfrm\UnityEngine.ParticleSystemModule.dll_661464EB98CE8AE5.mvfrm
Library\Bee\artifacts\mvdfrm\UnityEngine.PerformanceReportingModule.dll_CEABCF87546F6E1E.mvfrm
Library\Bee\artifacts\mvdfrm\UnityEngine.Physics2DModule.dll_F151722C122ECA8D.mvfrm
Library\Bee\artifacts\mvdfrm\UnityEngine.PhysicsModule.dll_1A55205926F3A1FB.mvfrm
Library\Bee\artifacts\mvdfrm\UnityEngine.ProfilerModule.dll_D569B8CBC3D5AF49.mvfrm
Library\Bee\artifacts\mvdfrm\UnityEngine.RuntimeInitializeOnLoadManagerInitializerModule.dll_5E29A4D29458D556.mvfrm
Library\Bee\artifacts\mvdfrm\UnityEngine.ScreenCaptureModule.dll_5D942348E63205BE.mvfrm
Library\Bee\artifacts\mvdfrm\UnityEngine.SharedInternalsModule.dll_8CF9076E1C4CD195.mvfrm
Library\Bee\artifacts\mvdfrm\UnityEngine.SpriteMaskModule.dll_8302E1A7ECEF0F31.mvfrm
Library\Bee\artifacts\mvdfrm\UnityEngine.SpriteShapeModule.dll_3A516AD16ADEB130.mvfrm
Library\Bee\artifacts\mvdfrm\UnityEngine.StreamingModule.dll_59406F8BC0B98A36.mvfrm
Library\Bee\artifacts\mvdfrm\UnityEngine.SubstanceModule.dll_35EB83D50C0C8844.mvfrm
Library\Bee\artifacts\mvdfrm\UnityEngine.SubsystemsModule.dll_EDB04809BB36F744.mvfrm
Library\Bee\artifacts\mvdfrm\UnityEngine.TerrainModule.dll_349B9BC7FCB1EAE9.mvfrm
Library\Bee\artifacts\mvdfrm\UnityEngine.TerrainPhysicsModule.dll_668F0DBEB2118572.mvfrm
Library\Bee\artifacts\mvdfrm\UnityEngine.TextCoreFontEngineModule.dll_CEA93A53EF7C34FD.mvfrm
Library\Bee\artifacts\mvdfrm\UnityEngine.TextCoreTextEngineModule.dll_169170C57EFFEE1B.mvfrm
Library\Bee\artifacts\mvdfrm\UnityEngine.TextRenderingModule.dll_86D395539D6985B3.mvfrm
Library\Bee\artifacts\mvdfrm\UnityEngine.TilemapModule.dll_D3980349146ECBF2.mvfrm
Library\Bee\artifacts\mvdfrm\UnityEngine.TLSModule.dll_3CD3725B9CA87C0F.mvfrm
Library\Bee\artifacts\mvdfrm\UnityEngine.UIElementsModule.dll_F1EEA971BE63333B.mvfrm
Library\Bee\artifacts\mvdfrm\UnityEngine.UIElementsNativeModule.dll_80A44069034E33B2.mvfrm
Library\Bee\artifacts\mvdfrm\UnityEngine.UIModule.dll_E0C043E0784F44B4.mvfrm
Library\Bee\artifacts\mvdfrm\UnityEngine.UmbraModule.dll_2CDF40C62D90615D.mvfrm
Library\Bee\artifacts\mvdfrm\UnityEngine.UNETModule.dll_39DB8250ECE2AFD8.mvfrm
Library\Bee\artifacts\mvdfrm\UnityEngine.UnityAnalyticsModule.dll_85B3D5B544F5DCE1.mvfrm
Library\Bee\artifacts\mvdfrm\UnityEngine.UnityConnectModule.dll_326400ED0AAE9895.mvfrm
Library\Bee\artifacts\mvdfrm\UnityEngine.UnityCurlModule.dll_D7C8236CE145C4E5.mvfrm
Library\Bee\artifacts\mvdfrm\UnityEngine.UnityTestProtocolModule.dll_F1DEF185E6EF4BD3.mvfrm
Library\Bee\artifacts\mvdfrm\UnityEngine.UnityWebRequestAssetBundleModule.dll_DA0D863EBA434072.mvfrm
Library\Bee\artifacts\mvdfrm\UnityEngine.UnityWebRequestAudioModule.dll_46A82365DADA38B6.mvfrm
Library\Bee\artifacts\mvdfrm\UnityEngine.UnityWebRequestModule.dll_1A86D042B01370C4.mvfrm
Library\Bee\artifacts\mvdfrm\UnityEngine.UnityWebRequestTextureModule.dll_C6935B812350A14B.mvfrm
Library\Bee\artifacts\mvdfrm\UnityEngine.UnityWebRequestWWWModule.dll_E153B6216EBFAA87.mvfrm
Library\Bee\artifacts\mvdfrm\UnityEngine.VehiclesModule.dll_1AE67914A4A5F7D7.mvfrm
Library\Bee\artifacts\mvdfrm\UnityEngine.VFXModule.dll_BDB20ACA7315E57C.mvfrm
Library\Bee\artifacts\mvdfrm\UnityEngine.VideoModule.dll_D714191862FBD18F.mvfrm
Library\Bee\artifacts\mvdfrm\UnityEngine.VRModule.dll_33926A661A09CA2C.mvfrm
Library\Bee\artifacts\mvdfrm\UnityEngine.WindModule.dll_1D841590310A38C8.mvfrm
Library\Bee\artifacts\mvdfrm\UnityEngine.XRModule.dll_66512D6AA344178A.mvfrm