Library\Bee\artifacts\mvdfrm\Unity.Services.Core.Internal.ref.dll_1A693ED936C5C9EF.mvfrm
Library\Bee\artifacts\mvdfrm\UnityEngine.UI.ref.dll_FAE6DBEA21006BE5.mvfrm
Library\Bee\artifacts\mvdfrm\Unity.VisualScripting.Antlr3.Runtime.dll_300EDA6609A9DBC5.mvfrm
Library\Bee\artifacts\mvdfrm\UnityEngine.AccessibilityModule.dll_F1574E5E28D6E0D0.mvfrm
Library\Bee\artifacts\mvdfrm\UnityEngine.AIModule.dll_57C7726EE03216AA.mvfrm
Library\Bee\artifacts\mvdfrm\UnityEngine.AndroidJNIModule.dll_46E337EC99823168.mvfrm
Library\Bee\artifacts\mvdfrm\UnityEngine.AnimationModule.dll_B569E729F91F0B76.mvfrm
Library\Bee\artifacts\mvdfrm\UnityEngine.ARModule.dll_113A37723D4F7573.mvfrm
Library\Bee\artifacts\mvdfrm\UnityEngine.AssetBundleModule.dll_49AF6DDEBFCACD64.mvfrm
Library\Bee\artifacts\mvdfrm\UnityEngine.AudioModule.dll_E60F71234E8F9EE8.mvfrm
Library\Bee\artifacts\mvdfrm\UnityEngine.ClothModule.dll_4CF7CE1E28AC7DCC.mvfrm
Library\Bee\artifacts\mvdfrm\UnityEngine.ClusterInputModule.dll_049711BE84D65B92.mvfrm
Library\Bee\artifacts\mvdfrm\UnityEngine.ClusterRendererModule.dll_D79FEB95B7F0920F.mvfrm
Library\Bee\artifacts\mvdfrm\UnityEngine.CoreModule.dll_055AA1AAB90DBA41.mvfrm
Library\Bee\artifacts\mvdfrm\UnityEngine.CrashReportingModule.dll_F5C079AB5A00C079.mvfrm
Library\Bee\artifacts\mvdfrm\UnityEngine.DirectorModule.dll_6128D0811572109E.mvfrm
Library\Bee\artifacts\mvdfrm\UnityEngine.dll_CFCAFD44D9907B84.mvfrm
Library\Bee\artifacts\mvdfrm\UnityEngine.DSPGraphModule.dll_667A31EA87D2E1BF.mvfrm
Library\Bee\artifacts\mvdfrm\UnityEngine.GameCenterModule.dll_713082075FC32259.mvfrm
Library\Bee\artifacts\mvdfrm\UnityEngine.GIModule.dll_F003BB7C7BE0FEC4.mvfrm
Library\Bee\artifacts\mvdfrm\UnityEngine.GridModule.dll_E2CBBD98D1625038.mvfrm
Library\Bee\artifacts\mvdfrm\UnityEngine.HotReloadModule.dll_36B2A52FD45226F8.mvfrm
Library\Bee\artifacts\mvdfrm\UnityEngine.ImageConversionModule.dll_4391E9463A154A03.mvfrm
Library\Bee\artifacts\mvdfrm\UnityEngine.IMGUIModule.dll_1E6F108A14C132C9.mvfrm
Library\Bee\artifacts\mvdfrm\UnityEngine.InputLegacyModule.dll_DAF488FD57BC8355.mvfrm
Library\Bee\artifacts\mvdfrm\UnityEngine.InputModule.dll_4C8538D3C4C7C38C.mvfrm
Library\Bee\artifacts\mvdfrm\UnityEngine.JSONSerializeModule.dll_516ED79A2812415A.mvfrm
Library\Bee\artifacts\mvdfrm\UnityEngine.LocalizationModule.dll_42E3DC111C524E8B.mvfrm
Library\Bee\artifacts\mvdfrm\UnityEngine.ParticleSystemModule.dll_48D2C2F7C8124C07.mvfrm
Library\Bee\artifacts\mvdfrm\UnityEngine.PerformanceReportingModule.dll_BB0A2BF72F7DD000.mvfrm
Library\Bee\artifacts\mvdfrm\UnityEngine.Physics2DModule.dll_020FD71A9A1C030B.mvfrm
Library\Bee\artifacts\mvdfrm\UnityEngine.PhysicsModule.dll_AA4B976A6F6DB6B9.mvfrm
Library\Bee\artifacts\mvdfrm\UnityEngine.ProfilerModule.dll_936F09B7AECB97AB.mvfrm
Library\Bee\artifacts\mvdfrm\UnityEngine.RuntimeInitializeOnLoadManagerInitializerModule.dll_D1349D6E5D3C09D4.mvfrm
Library\Bee\artifacts\mvdfrm\UnityEngine.ScreenCaptureModule.dll_6B56851F3C7E6DBC.mvfrm
Library\Bee\artifacts\mvdfrm\UnityEngine.SharedInternalsModule.dll_C7A3281BB1434553.mvfrm
Library\Bee\artifacts\mvdfrm\UnityEngine.SpriteMaskModule.dll_5A5CF4978132B7D3.mvfrm
Library\Bee\artifacts\mvdfrm\UnityEngine.SpriteShapeModule.dll_63109B39756D056E.mvfrm
Library\Bee\artifacts\mvdfrm\UnityEngine.StreamingModule.dll_69FED47A48A6C2B4.mvfrm
Library\Bee\artifacts\mvdfrm\UnityEngine.SubstanceModule.dll_46A9E8C393F9C0C2.mvfrm
Library\Bee\artifacts\mvdfrm\UnityEngine.SubsystemsModule.dll_C50A5AF94F7A9FE6.mvfrm
Library\Bee\artifacts\mvdfrm\UnityEngine.TerrainModule.dll_C49212D9452BFFA7.mvfrm
Library\Bee\artifacts\mvdfrm\UnityEngine.TerrainPhysicsModule.dll_494D6BCAE1554694.mvfrm
Library\Bee\artifacts\mvdfrm\UnityEngine.TextCoreFontEngineModule.dll_9DEDD4BEF7C22E9F.mvfrm
Library\Bee\artifacts\mvdfrm\UnityEngine.TextCoreTextEngineModule.dll_E5D60B308745E7BD.mvfrm
Library\Bee\artifacts\mvdfrm\UnityEngine.TextRenderingModule.dll_9495F729F3B5EDB1.mvfrm
Library\Bee\artifacts\mvdfrm\UnityEngine.TilemapModule.dll_638E7A5A5CE8E0B0.mvfrm
Library\Bee\artifacts\mvdfrm\UnityEngine.TLSModule.dll_5E56765C636A314D.mvfrm
Library\Bee\artifacts\mvdfrm\UnityEngine.UIElementsModule.dll_C948BC6152A6DBDD.mvfrm
Library\Bee\artifacts\mvdfrm\UnityEngine.UIElementsNativeModule.dll_291DFADE41A64D14.mvfrm
Library\Bee\artifacts\mvdfrm\UnityEngine.UIModule.dll_533B109C3C791C56.mvfrm
Library\Bee\artifacts\mvdfrm\UnityEngine.UmbraModule.dll_60E41D3BDBB64A5B.mvfrm
Library\Bee\artifacts\mvdfrm\UnityEngine.UNETModule.dll_9800E994061CAFBA.mvfrm
Library\Bee\artifacts\mvdfrm\UnityEngine.UnityAnalyticsModule.dll_687233C174399E03.mvfrm
Library\Bee\artifacts\mvdfrm\UnityEngine.UnityConnectModule.dll_725A20B7CDD68977.mvfrm
Library\Bee\artifacts\mvdfrm\UnityEngine.UnityCurlModule.dll_E886885B6932FD63.mvfrm
Library\Bee\artifacts\mvdfrm\UnityEngine.UnityTestProtocolModule.dll_D1E4F170B72AC351.mvfrm
Library\Bee\artifacts\mvdfrm\UnityEngine.UnityWebRequestAssetBundleModule.dll_37497E0A4EB40B14.mvfrm
Library\Bee\artifacts\mvdfrm\UnityEngine.UnityWebRequestAudioModule.dll_33067FD5B5E89A98.mvfrm
Library\Bee\artifacts\mvdfrm\UnityEngine.UnityWebRequestModule.dll_5530F0F04509E482.mvfrm
Library\Bee\artifacts\mvdfrm\UnityEngine.UnityWebRequestTextureModule.dll_EBBA90366222F36D.mvfrm
Library\Bee\artifacts\mvdfrm\UnityEngine.UnityWebRequestWWWModule.dll_B098508C7705A429.mvfrm
Library\Bee\artifacts\mvdfrm\UnityEngine.VehiclesModule.dll_D8EBCA008F9BE039.mvfrm
Library\Bee\artifacts\mvdfrm\UnityEngine.VFXModule.dll_DF350ECB39D79ABA.mvfrm
Library\Bee\artifacts\mvdfrm\UnityEngine.VideoModule.dll_0B18F58E1121BA8D.mvfrm
Library\Bee\artifacts\mvdfrm\UnityEngine.VirtualTexturingModule.dll_4DAAAF4D1A54CD9F.mvfrm
Library\Bee\artifacts\mvdfrm\UnityEngine.VRModule.dll_A60D3721DE33A1CE.mvfrm
Library\Bee\artifacts\mvdfrm\UnityEngine.WindModule.dll_7BA97CD34A4438AA.mvfrm
Library\Bee\artifacts\mvdfrm\UnityEngine.XRModule.dll_D8CBFA26676DEF2C.mvfrm