Library\Bee\artifacts\mvdfrm\UnityEngine.UI.ref.dll_B7EAB4C997F13057.mvfrm
Library\Bee\artifacts\mvdfrm\Unity.VisualScripting.Antlr3.Runtime.dll_300EDA6609A9DBC5.mvfrm
Library\Bee\artifacts\mvdfrm\UnityEngine.AccessibilityModule.dll_CC9E928C6E7DE9A1.mvfrm
Library\Bee\artifacts\mvdfrm\UnityEngine.AIModule.dll_3E6DDC6ABB2D5509.mvfrm
Library\Bee\artifacts\mvdfrm\UnityEngine.AndroidJNIModule.dll_363AA502E5D59F47.mvfrm
Library\Bee\artifacts\mvdfrm\UnityEngine.AnimationModule.dll_DB5C015CF061F807.mvfrm
Library\Bee\artifacts\mvdfrm\UnityEngine.ARModule.dll_F7E0A16E184AB3D2.mvfrm
Library\Bee\artifacts\mvdfrm\UnityEngine.AssetBundleModule.dll_5866C1F89E716615.mvfrm
Library\Bee\artifacts\mvdfrm\UnityEngine.AudioModule.dll_5D5A6D8FC72F7F39.mvfrm
Library\Bee\artifacts\mvdfrm\UnityEngine.ClothModule.dll_C442CA8AA14C5E1D.mvfrm
Library\Bee\artifacts\mvdfrm\UnityEngine.CoreModule.dll_53FA864444510A80.mvfrm
Library\Bee\artifacts\mvdfrm\UnityEngine.CrashReportingModule.dll_F6BDC3D2C51B2E18.mvfrm
Library\Bee\artifacts\mvdfrm\UnityEngine.DirectorModule.dll_86F2D9549371F89D.mvfrm
Library\Bee\artifacts\mvdfrm\UnityEngine.dll_C6F8CCC336259715.mvfrm
Library\Bee\artifacts\mvdfrm\UnityEngine.DSPGraphModule.dll_8C443ABE05D2C9BE.mvfrm
Library\Bee\artifacts\mvdfrm\UnityEngine.GameCenterModule.dll_6087EF1DAC169038.mvfrm
Library\Bee\artifacts\mvdfrm\UnityEngine.GIModule.dll_D6AA257856DC3D23.mvfrm
Library\Bee\artifacts\mvdfrm\UnityEngine.GridModule.dll_316BA2325CA5A077.mvfrm
Library\Bee\artifacts\mvdfrm\UnityEngine.HotReloadModule.dll_5CA4BF62CB951389.mvfrm
Library\Bee\artifacts\mvdfrm\UnityEngine.ImageConversionModule.dll_DB2872D6B35A06F4.mvfrm
Library\Bee\artifacts\mvdfrm\UnityEngine.IMGUIModule.dll_95BA0CF68D61131A.mvfrm
Library\Bee\artifacts\mvdfrm\UnityEngine.InputLegacyModule.dll_E9ABDD1736631C06.mvfrm
Library\Bee\artifacts\mvdfrm\UnityEngine.InputModule.dll_C3D035403D67A3DD.mvfrm
Library\Bee\artifacts\mvdfrm\UnityEngine.JSONSerializeModule.dll_2CB61BC86DB94A2B.mvfrm
Library\Bee\artifacts\mvdfrm\UnityEngine.LocalizationModule.dll_0C280692DE16BE4A.mvfrm
Library\Bee\artifacts\mvdfrm\UnityEngine.ParticleSystemModule.dll_49D00D1F332CB9A6.mvfrm
Library\Bee\artifacts\mvdfrm\UnityEngine.PerformanceReportingModule.dll_79012595D4D31F3F.mvfrm
Library\Bee\artifacts\mvdfrm\UnityEngine.Physics2DModule.dll_2801F14D915EEF9C.mvfrm
Library\Bee\artifacts\mvdfrm\UnityEngine.PhysicsModule.dll_5514FCBB0CF93B2A.mvfrm
Library\Bee\artifacts\mvdfrm\UnityEngine.ProfilerModule.dll_B939128B2CCB7FAA.mvfrm
Library\Bee\artifacts\mvdfrm\UnityEngine.RuntimeInitializeOnLoadManagerInitializerModule.dll_21263C29CB0D9865.mvfrm
Library\Bee\artifacts\mvdfrm\UnityEngine.ScreenCaptureModule.dll_469DC94D8225768D.mvfrm
Library\Bee\artifacts\mvdfrm\UnityEngine.SharedInternalsModule.dll_5F39B1AC2A880244.mvfrm
Library\Bee\artifacts\mvdfrm\UnityEngine.SpriteMaskModule.dll_49B461ADCD8625B2.mvfrm
Library\Bee\artifacts\mvdfrm\UnityEngine.SpriteShapeModule.dll_71C7EF5354139E1F.mvfrm
Library\Bee\artifacts\mvdfrm\UnityEngine.StreamingModule.dll_8FF0EEAD3FE9AF45.mvfrm
Library\Bee\artifacts\mvdfrm\UnityEngine.SubstanceModule.dll_6C9C02F68B3CAD53.mvfrm
Library\Bee\artifacts\mvdfrm\UnityEngine.SubsystemsModule.dll_B461C80F9BCE0DC5.mvfrm
Library\Bee\artifacts\mvdfrm\UnityEngine.TerrainModule.dll_6F5B7829E2B78418.mvfrm
Library\Bee\artifacts\mvdfrm\UnityEngine.TerrainPhysicsModule.dll_4A4AB5F24C6FB433.mvfrm
Library\Bee\artifacts\mvdfrm\UnityEngine.TextCoreFontEngineModule.dll_667688913E058BFE.mvfrm
Library\Bee\artifacts\mvdfrm\UnityEngine.TextCoreTextEngineModule.dll_AE5EBF02CD89451C.mvfrm
Library\Bee\artifacts\mvdfrm\UnityEngine.TextRenderingModule.dll_6FDD3B58395CF682.mvfrm
Library\Bee\artifacts\mvdfrm\UnityEngine.TilemapModule.dll_0E57DFAAFA746521.mvfrm
Library\Bee\artifacts\mvdfrm\UnityEngine.TLSModule.dll_6D4C692EAA19B17E.mvfrm
Library\Bee\artifacts\mvdfrm\UnityEngine.UIElementsModule.dll_B8A029779EFA49BC.mvfrm
Library\Bee\artifacts\mvdfrm\UnityEngine.UIElementsNativeModule.dll_EAE6D0AB42B33493.mvfrm
Library\Bee\artifacts\mvdfrm\UnityEngine.UIModule.dll_39E17A9817745AB5.mvfrm
Library\Bee\artifacts\mvdfrm\UnityEngine.UmbraModule.dll_D82F19A854562AAC.mvfrm
Library\Bee\artifacts\mvdfrm\UnityEngine.UNETModule.dll_E6A0CE2D915FFFF9.mvfrm
Library\Bee\artifacts\mvdfrm\UnityEngine.UnityAnalyticsModule.dll_696F7DE8DF540BA2.mvfrm
Library\Bee\artifacts\mvdfrm\UnityEngine.UnityConnectModule.dll_3B9E4B398F9AF936.mvfrm
Library\Bee\artifacts\mvdfrm\UnityEngine.UnityCurlModule.dll_0E78A28E6075E9F4.mvfrm
Library\Bee\artifacts\mvdfrm\UnityEngine.UnityTestProtocolModule.dll_F040E9A9DABAF862.mvfrm
Library\Bee\artifacts\mvdfrm\UnityEngine.UnityWebRequestAssetBundleModule.dll_A3B9B8ECA35F17F3.mvfrm
Library\Bee\artifacts\mvdfrm\UnityEngine.UnityWebRequestAudioModule.dll_F0FD79745B3DE9D7.mvfrm
Library\Bee\artifacts\mvdfrm\UnityEngine.UnityWebRequestModule.dll_ECC77A80BE4EA173.mvfrm
Library\Bee\artifacts\mvdfrm\UnityEngine.UnityWebRequestTextureModule.dll_C57B8744F0ED308C.mvfrm
Library\Bee\artifacts\mvdfrm\UnityEngine.UnityWebRequestWWWModule.dll_7921045EBD490188.mvfrm
Library\Bee\artifacts\mvdfrm\UnityEngine.VehiclesModule.dll_FEB5D2D40D9BC838.mvfrm
Library\Bee\artifacts\mvdfrm\UnityEngine.VFXModule.dll_EE2B019D80871AEB.mvfrm
Library\Bee\artifacts\mvdfrm\UnityEngine.VideoModule.dll_8263F1FA89C19ADE.mvfrm
Library\Bee\artifacts\mvdfrm\UnityEngine.VRModule.dll_8CB3A11DB92EE02D.mvfrm
Library\Bee\artifacts\mvdfrm\UnityEngine.WindModule.dll_CA49616CD58788E9.mvfrm
Library\Bee\artifacts\mvdfrm\UnityEngine.XRModule.dll_BF72642242692D8B.mvfrm